01;Ақмола;Акмолинская
02;Алматы;Алматинская
03;Ақтөбе;Актюбинская
04;Атырау;Атырауская
05;Батыс Қазақстан;Западно-Казахстанская
06;Маңғыстау;Мангистауская
07;Шығыс Қазақстан;Восточно-Казахстанская
08;Жамбыл;Жамбылская
09;Қарағанды;Карагандинская
10;Қызылорда;Кызылординская
11;Оңтүстік Қазақстан;Южно-Казахстанская
12;Қостанай;Костанайская
13;Павлодар;Павлодарская
14;Солтүстік Қазақстан;Северо-Казахстанская
15;Астана қ.;г.Астана
16;Алматы қ.;г.Алматы